<?xml version="1.0" encoding="utf-8"?>
<!-- Generator: Adobe Illustrator 17.0.0, SVG Export Plug-In . SVG Version: 6.00 Build 0)  -->
<!DOCTYPE svg PUBLIC "-//W3C//DTD SVG 1.1//EN" "http://www.w3.org/Graphics/SVG/1.1/DTD/svg11.dtd">
<svg version="1.1" id="Capa_1" xmlns="http://www.w3.org/2000/svg" xmlns:xlink="http://www.w3.org/1999/xlink" x="0px" y="0px"
	 width="512px" height="512px" viewBox="0 0 512 512" enable-background="new 0 0 512 512" xml:space="preserve">
<path fill="#FFFFFF" d="M484.766,0H27.234C12.195,0,0,12.195,0,27.234v457.532C0,499.805,12.195,512,27.234,512h457.532
	C499.81,512,512,499.805,512,484.766V27.234C512,12.195,499.81,0,484.766,0z M467.739,126.922
	c-11.558,17.305-25.883,32.256-42.578,44.468c0.131,3.355,0.196,6.716,0.196,10.104c0,121.546-92.481,247.263-247.263,247.263
	c-47.316,0-93.38-13.503-133.218-39.048c-0.828-0.528-1.182-1.558-0.844-2.484c0.332-0.921,1.275-1.487,2.228-1.383
	c6.694,0.795,13.519,1.193,20.311,1.193c36.81,0,71.658-11.378,101.131-32.97c-35.333-2.979-65.699-26.896-76.626-60.999
	c-0.223-0.714-0.06-1.476,0.436-2.043c0.49-0.561,1.247-0.795,1.972-0.67c9.788,1.863,19.739,1.972,29.342,0.425
	c-36.439-11.329-62.055-45.459-62.055-84.322l0.011-1.133c0.016-0.741,0.419-1.416,1.051-1.776c0.643-0.37,1.438-0.376,2.075-0.016
	c9.494,5.273,20.028,8.666,30.802,9.957c-20.938-16.689-33.236-41.989-33.236-69.055c0-15.616,4.14-30.971,11.95-44.381
	c0.349-0.594,0.97-0.991,1.661-1.035c0.692-0.071,1.362,0.229,1.792,0.773c42.866,52.567,105.908,84.943,173.323,89.099
	c-1.133-5.665-1.699-11.493-1.699-17.381c0-48.673,39.604-88.266,88.271-88.266c23.944,0,47.055,9.837,63.624,27.016
	c18.693-3.807,36.477-10.676,52.916-20.426c0.757-0.447,1.699-0.376,2.386,0.163c0.681,0.55,0.959,1.46,0.686,2.293
	c-5.561,17.424-16.438,32.621-31.025,43.596c13.742-2.391,27.092-6.438,39.773-12.059c0.855-0.392,1.863-0.147,2.467,0.566
	C468.202,125.113,468.268,126.137,467.739,126.922z"/>
</svg>
